Analysis of Lead Groups
…
lead <- read_csv("lead.csv")

## Parsed with column specification:
## cols(
##   .default = col_double()
## )

## See spec(...) for full column specifications.

lead

## # A tibble: 124 x 40
##       id  area   age   sex iqv_inf iqv_comp iqv_ar iqv_ds iqv_raw iqp_pc iqp_bd
##    <dbl> <dbl> <dbl> <dbl>   <dbl>    <dbl>  <dbl>  <dbl>   <dbl>  <dbl>  <dbl>
##  1   101     3  1101     1       3        4      3      5      15     10      8
##  2   102     3   905     1       7        9      7      6      29      8      7
##  3   103     3  1101     1       4        9      5      3      21     10      7
##  4   104     2   611     1       4        6      6      6      22      5      8
##  5   105     1  1103     1       5        4      8      5      22      5     10
##  6   106     2   606     1       5       12     11      9      37     14      7
##  7   107     3   611     1       7        9     10      7      33     10      8
##  8   108     1  1500     2       3        1      3      6      13      6      2
##  9   109     2   702     2      13       10     14     13      50      8     15
## 10   110     2   703     1       7        9     12      9      37      6      9
## #  with 114 more rows, and 29 more variables: iqp_oa <dbl>, iqp_cod <dbl>,
## #   iqp_raw <dbl>, hh_index <dbl>, iqv <dbl>, iqp <dbl>, iqf <dbl>,
## #   iq_type <dbl>, lead_typ <dbl>, ld72 <dbl>, ld73 <dbl>, fst2yrs <dbl>,
## #   totyrs <dbl>, pica <dbl>, colic <dbl>, clumsi <dbl>, irrit <dbl>,
## #   convul <dbl>, `@2plat_r` <dbl>, `@2plat_l` <dbl>, visrea_r <dbl>,
## #   visrea_l <dbl>, audrea_r <dbl>, audrea_l <dbl>, fwt_r <dbl>, fwt_l <dbl>,
## #   hyperact <dbl>, MAXFT <dbl>, GROUP <dbl>
…
